reverse_voltage;d_reverse_voltage;cell_voltage;d_cell_voltage
2.786;0.001;6.39;0.003
2.627;0.001;6.21;0.003
2.555;0.001;6.06;0.008
2.494;0.001;5.99;0.006
2.411;0.001;5.92;0.004
2.323;0.001;5.75;0.005
2.244;0.001;5.62;0.006
2.159;0.001;5.525;0.008
2.044;0.001;5.31;0.008
1.937;0.001;5.11;0.01
1.845;0.001;4.96;0.015
1.763;0.001;4.83;0.01
1.669;0.001;4.68;0.001
1.575;0.001;4.52;0.01
1.477;0.001;4.38;0.01
1.340;0.001;4.17;0.01
1.250;0.001;4.05;0.01
1.136;0.001;3.86;0.015
1.033;0.001;3.71;0.01
0.941;0.001;3.56;0.001
0.890;0.001;3.47;0.015
0.756;0.001;3.25;0.01
0.620;0.001;2.99;0.015
0.535;0.001;2.83;0.01
0.443;0.001;2.61;0.01
0.368;0.001;2.41;0.015
0.240;0.001;2.06;0.01
0.124;0.001;1.67;0.01
0;0.001;1.22;0.01
-0.087;0.001;0.88;0.008
-0.165;0.001;0.60;0.01
-0.223;0.001;0.45;0.01
-0.298;0.002;0.26;0.02
-0.392;0.001;0.15;0.01
-0.485;0.001;0.113;0.008
-0.559;0.001;0.08;0.01
-0.637;0.002;0.075;0.005
-0.865;0.001;0.037;0.003
-1.001;0.001;0.020;0.003
-1.184;0.001;0.002;0.003
-1.334;0.001;-0.012;0.002
-1.504;0.001;-0.027;0.004
-1.628;0.001;-0.036;0.003
-1.897;0.001;-0.052;0.004
-2.119;0.001;-0.065;0.003
-2.376;0.001;-0.075;0.005
-2.566;0.001;-0.082;0.005
-2.782;0.001;-0.084;0.004