reverse_voltage;d_reverse_voltage;cell_voltage;d_cell_voltage;cell_direct;d_cell_direct
2.696;0.001;5.05;0.01;0.2491;0.0002
2.609;0.001;4.96;0.01;0.2438;0.0002
2.485;0.001;4.85;0.01;0.2368;0.0002
2.381;0.001;4.76;0.01;0.2314;0.0002
2.283;0.001;4.685;0.005;0.2266;0.0002
2.130;0.001;4.55;0.01;0.2185;0.0002
2.02;0.001;4.46;0.005;0.2125;0.0002
1.878;0.001;4.298;0.004;0.2024;0.0002
1.738;0.001;4.075;0.0008;0.189;0.0002
1.6;0.001;3.78;0.008;0.1711;0.0002
1.49;0.001;3.5;0.005;0.1539;0.0002
1.336;0.001;3.022;0.005;0.1254;0.0002
1.226;0.001;2.652;0.005;0.1036;0.0002
1.109;0.001;2.242;0.005;0.080;0.0002
0.996;0.001;1.882;0.005;0.0581;0.0002
0.851;0.001;1.436;0.005;0.0314;0.0001
0.724;0.001;1.07;0.01;0.0098;0.0001
0.598;0.001;0.782;0.004;-0.0083;0.0001
0.481;0.001;0.521;0.004;-0.0226;0.0001
0.354;0.001;0.327;0.004;-0.0342;0.0001
0.248;0.001;0.199;0.003;-0.0413;0.0001
0.125;0.001;0.101;0.002;-0.0469;0.0001
0;0.001;0.049;0.004;-0.0501;0.0001
-0.122;0.001;0.025;0.002;-0.0517;0.0001
-0.256;0.001;0.013;0.005;-0.0524;0.0001
-0.431;0.001;0.009;0.004;-0.0527;0.0001
-0.580;0.001;0.008;0.003;-0.0527;0.0001
-0.683;0.001;0.007;0.004;-0.0527;0.0001
-0.777;0.001;0.006;0.004;-0.0528;0.0001
-0.942;0.001;0.006;0.004;-0.0528;0.0001
-1.080;0.001;0.006;0.003;-0.0529;0.0001
-1.231;0.001;0.006;0.004;-0.0528;0.0001
-1.389;0.001;0.006;0.005;-0.0529;0.0001
-1.544;0.001;0.005;0.005;-0.0529;0.0001
-1.712;0.001;0.005;0.003;-0.0528;0.0001
-1.904;0.001;0.005;0.004;-0.0528;0.0001
-2.087;0.001;0.005;0.004;-0.0527;0.0001
-2.215;0.001;0.005;0.004;-0.0527;0.0001
-2.395;0.001;0.005;0.004;-0.0527;0.0001
-2.555;0.001;0.005;0.004;-0.0528;0.0001
-2.694;0.001;0.005;0.004;-0.0527;0.0001